<?xml version="1.0" encoding="utf-8"?>

<!-- Uploaded to: SVG Repo, www.svgrepo.com, Generator: SVG Repo Mixer Tools -->
<svg width="800px" height="800px" viewBox="0 0 48 48" xmlns="http://www.w3.org/2000/svg">
  <title>security-priority</title>
  <g id="Layer_2" data-name="Layer 2">
    <g id="invisible_box" data-name="invisible box">
      <rect width="48" height="48" fill="none"/>
    </g>
    <g id="icons_Q2" data-name="icons Q2">
      <path fill="#00CBB4" d="M24,6.2c5.3,1.5,11.1,3.3,14,4.3V26.2c0,3.4-3.7,9.4-14,15.4-10.3-6.1-14-12-14-15.4V10.5c2.9-1.1,8.7-2.8,14-4.3M24,2S6,7.1,6,8V26.2c0,9.2,13.3,17.3,17,19.5a1.8,1.8,0,0,0,2,0c3.8-2.1,17-10.3,17-19.5V8c0-.9-18-6-18-6Z"/>
      <path fill="#00CBB4" d="M28.1,34.3,25,25h4a1,1,0,0,0,.7-1.7L20.8,11.2c-.4-.5-1.2,0-.9.5L23,21H19a1,1,0,0,0-.7,1.7l8.9,12.1C27.6,35.3,28.4,34.8,28.1,34.3Z"/>
    </g>
  </g>
</svg>
